…
``` r
insert_column(mtcars,2L,"right")
```

    ## # A tibble: 32 x 14
    ##      mpg   cyl V3     mpg1  cyl1  disp    hp  drat    wt  qsec    vs    am
    ##    <dbl> <dbl> <lgl> <dbl> <dbl> <dbl> <dbl> <dbl> <dbl> <dbl> <dbl> <dbl>
    ##  1  21       6 NA     21       6  160    110  3.9   2.62  16.5     0     1
    ##  2  21       6 NA     21       6  160    110  3.9   2.88  17.0     0     1
    ##  3  22.8     4 NA     22.8     4  108     93  3.85  2.32  18.6     1     1
    ##  4  21.4     6 NA     21.4     6  258    110  3.08  3.22  19.4     1     0
    ##  5  18.7     8 NA     18.7     8  360    175  3.15  3.44  17.0     0     0
    ##  6  18.1     6 NA     18.1     6  225    105  2.76  3.46  20.2     1     0
    ##  7  14.3     8 NA     14.3     8  360    245  3.21  3.57  15.8     0     0
    ##  8  24.4     4 NA     24.4     4  147.    62  3.69  3.19  20       1     0
    ##  9  22.8     4 NA     22.8     4  141.    95  3.92  3.15  22.9     1     0
    ## 10  19.2     6 NA     19.2     6  168.   123  3.92  3.44  18.3     1     0
    ## # ... with 22 more rows, and 2 more variables: gear <dbl>, carb <dbl>

``` r
insert_column(mtcars,1L,"left")
```

    ## # A tibble: 32 x 12
    ##    V1      mpg   cyl  disp    hp  drat    wt  qsec    vs    am  gear  carb
    ##    <lgl> <dbl> <dbl> <dbl> <dbl> <dbl> <dbl> <dbl> <dbl> <dbl> <dbl> <dbl>
    ##  1 NA     21       6  160    110  3.9   2.62  16.5     0     1     4     4
    ##  2 NA     21       6  160    110  3.9   2.88  17.0     0     1     4     4
    ##  3 NA     22.8     4  108     93  3.85  2.32  18.6     1     1     4     1
    ##  4 NA     21.4     6  258    110  3.08  3.22  19.4     1     0     3     1
    ##  5 NA     18.7     8  360    175  3.15  3.44  17.0     0     0     3     2
    ##  6 NA     18.1     6  225    105  2.76  3.46  20.2     1     0     3     1
    ##  7 NA     14.3     8  360    245  3.21  3.57  15.8     0     0     3     4
    ##  8 NA     24.4     4  147.    62  3.69  3.19  20       1     0     4     2
    ##  9 NA     22.8     4  141.    95  3.92  3.15  22.9     1     0     4     2
    ## 10 NA     19.2     6  168.   123  3.92  3.44  18.3     1     0     4     4
    ## # ... with 22 more rows

``` r
insert_row(mtcars,2L,"below")
```

    ## # A tibble: 35 x 11
    ##      mpg   cyl  disp    hp  drat    wt  qsec    vs    am  gear  carb
    ##    <dbl> <dbl> <dbl> <dbl> <dbl> <dbl> <dbl> <dbl> <dbl> <dbl> <dbl>
    ##  1  21       6   160   110  3.9   2.62  16.5     0     1     4     4
    ##  2  21       6   160   110  3.9   2.88  17.0     0     1     4     4
    ##  3  NA      NA    NA    NA NA    NA     NA      NA    NA    NA    NA
    ##  4  21       6   160   110  3.9   2.62  16.5     0     1     4     4
    ##  5  21       6   160   110  3.9   2.88  17.0     0     1     4     4
    ##  6  22.8     4   108    93  3.85  2.32  18.6     1     1     4     1
    ##  7  21.4     6   258   110  3.08  3.22  19.4     1     0     3     1
    ##  8  18.7     8   360   175  3.15  3.44  17.0     0     0     3     2
    ##  9  18.1     6   225   105  2.76  3.46  20.2     1     0     3     1
    ## 10  14.3     8   360   245  3.21  3.57  15.8     0     0     3     4
    ## # ... with 25 more rows

``` r
insert_row(mtcars,1L,"above")
```

    ## # A tibble: 33 x 11
    ##      mpg   cyl  disp    hp  drat    wt  qsec    vs    am  gear  carb
    ##    <dbl> <dbl> <dbl> <dbl> <dbl> <dbl> <dbl> <dbl> <dbl> <dbl> <dbl>
    ##  1  NA      NA   NA     NA NA    NA     NA      NA    NA    NA    NA
    ##  2  21       6  160    110  3.9   2.62  16.5     0     1     4     4
    ##  3  21       6  160    110  3.9   2.88  17.0     0     1     4     4
    ##  4  22.8     4  108     93  3.85  2.32  18.6     1     1     4     1
    ##  5  21.4     6  258    110  3.08  3.22  19.4     1     0     3     1
    ##  6  18.7     8  360    175  3.15  3.44  17.0     0     0     3     2
    ##  7  18.1     6  225    105  2.76  3.46  20.2     1     0     3     1
    ##  8  14.3     8  360    245  3.21  3.57  15.8     0     0     3     4
    ##  9  24.4     4  147.    62  3.69  3.19  20       1     0     4     2
    ## 10  22.8     4  141.    95  3.92  3.15  22.9     1     0     4     2
    ## # ... with 23 more rows
…
